…
large_x <- readr::read_csv(
  list.files(tf, full.names = TRUE),
  id = "file_path"
)
#> Rows: 320000 Columns: 12
#> ── Column specification ────────────────────────────────────────────────────────
#> Delimiter: ","
#> dbl (11): mpg, cyl, disp, hp, drat, wt, qsec, vs, am, gear, carb
#> 
#> ℹ Use `spec()` to retrieve the full column specification for this data.
#> ℹ Specify the column types or set `show_col_types = FALSE` to quiet this message.
large_x
#> # A tibble: 320,000 × 12
#>    file_path     mpg   cyl  disp    hp  drat    wt  qsec    vs    am  gear  carb
#>    <chr>       <dbl> <dbl> <dbl> <dbl> <dbl> <dbl> <dbl> <dbl> <dbl> <dbl> <dbl>
#>  1 /var/folde…  21.4     6  258    110  3.08  3.22  19.4     1     0     3     1
#>  2 /var/folde…  18.7     8  360    175  3.15  3.44  17.0     0     0     3     2
#>  3 /var/folde…  18.1     6  225    105  2.76  3.46  20.2     1     0     3     1
#>  4 /var/folde…  14.3     8  360    245  3.21  3.57  15.8     0     0     3     4
#>  5 /var/folde…  24.4     4  147.    62  3.69  3.19  20       1     0     4     2
#>  6 /var/folde…  22.8     4  141.    95  3.92  3.15  22.9     1     0     4     2
#>  7 /var/folde…  19.2     6  168.   123  3.92  3.44  18.3     1     0     4     4
#>  8 /var/folde…  17.8     6  168.   123  3.92  3.44  18.9     1     0     4     4
#>  9 /var/folde…  16.4     8  276.   180  3.07  4.07  17.4     0     0     3     3
#> 10 /var/folde…  17.3     8  276.   180  3.07  3.73  17.6     0     0     3     3
#> # ℹ 319,990 more rows
…
